0 0 3.409318e+01 5.525057e-05
0 0 4.403114e+01 4.440812e-05
0 0 5.686596e+01 3.585673e-05
0 0 7.344205e+01 2.756409e-05
0 0 9.484998e+01 1.920109e-05
0 0 1.224982e+02 1.359474e-05
0 0 1.582057e+02 9.433924e-06
0 0 2.043217e+02 6.603372e-06
0 0 2.638803e+02 4.653816e-06
0 0 3.407999e+02 3.366898e-06
0 0 4.401410e+02 2.503374e-06
0 0 5.684395e+02 0.000000e+00
0 0 7.341363e+02 0.000000e+00
0 0 9.481328e+02 0.000000e+00
0 0 1.224508e+03 0.000000e+00
0 0 1.581445e+03 0.000000e+00
0 0 2.042427e+03 0.000000e+00
0 0 2.637782e+03 0.000000e+00
0 0 3.406680e+03 0.000000e+00
0 0 4.399707e+03 0.000000e+00
1 1 3.409318e+01 3.579115e-05
1 1 4.403114e+01 2.999916e-05
1 1 5.686596e+01 2.398042e-05
1 1 7.344205e+01 1.938252e-05
1 1 9.484998e+01 1.580235e-05
1 1 1.224982e+02 1.139910e-05
1 1 1.582057e+02 7.829023e-06
1 1 2.043217e+02 5.566187e-06
1 1 2.638803e+02 3.770659e-06
1 1 3.407999e+02 2.596134e-06
1 1 4.401410e+02 1.820142e-06
1 1 5.684395e+02 1.308021e-06
1 1 7.341363e+02 9.655083e-07
1 1 9.481328e+02 0.000000e+00
1 1 1.224508e+03 0.000000e+00
1 1 1.581445e+03 0.000000e+00
1 1 2.042427e+03 0.000000e+00
1 1 2.637782e+03 0.000000e+00
1 1 3.406680e+03 0.000000e+00
1 1 4.399707e+03 0.000000e+00
2 2 3.409318e+01 2.563334e-05
2 2 4.403114e+01 2.342286e-05
2 2 5.686596e+01 1.970029e-05
2 2 7.344205e+01 1.572118e-05
2 2 9.484998e+01 1.266868e-05
2 2 1.224982e+02 1.042682e-05
2 2 1.582057e+02 7.539480e-06
2 2 2.043217e+02 5.109603e-06
2 2 2.638803e+02 3.636474e-06
2 2 3.407999e+02 2.445973e-06
2 2 4.401410e+02 1.654845e-06
2 2 5.684395e+02 1.140008e-06
2 2 7.341363e+02 8.027108e-07
2 2 9.481328e+02 5.810186e-07
2 2 1.224508e+03 0.000000e+00
2 2 1.581445e+03 0.000000e+00
2 2 2.042427e+03 0.000000e+00
2 2 2.637782e+03 0.000000e+00
2 2 3.406680e+03 0.000000e+00
2 2 4.399707e+03 0.000000e+00
